{
  "$schema": "https://schema.management.azure.com/schemas/2015-01-01/deploymentParameters.json#",
  "contentVersion": "1.0.0.0",
  "parameters": {
    "solutionPrefix": {
      "value": "module05"
    },
    "storageType": {
      "value": "Standard_LRS"
    },
    "vmSizes": {
      "value": [
				"Standard_D2_v2"
			]
    },
    "vmAdminUserName": {
      "value": "devops"
    },
    "vmAdminPassword": {
      "reference": {
        "keyVault": {
          "id": "/subscriptions/2434af2b-bed5-406c-92ad-5382ba506ed6/resourceGroups/Module05-iaas/providers/Microsoft.KeyVault/vaults/Module05-keyvault"
        },
        "secretName": "AdminPassword"
      }
    },
    "vmWindowsOSVersion": {
      "value": "2016-Datacenter"
    }
  }
}