Name,Location,AvailabilySet,VMSize,PublisherName,Offer,SKU
win-web,eastus,win-web-av,Standard_B2s,MicrosoftWindowsServer,WindowsServer,2016-Datacenter
win-web,eastus,win-web-av,Standard_DS1_v2,MicrosoftWindowsServer,WindowsServer,2016-Datacenter
